v 0.455539 -9.61151e-07 0.135715
v 1.44519 -0.000143807 -0.00781171
l 1 2
v 0.435628 -2.03403e-06 0.139012
v 1.42067 -2.03403e-06 -0.0332884
l 3 4
v 0.436091 -2.03403e-06 0.138931
v 1.42169 -2.03403e-06 -0.0301806
l 5 6
v 0.445585 -2.03403e-06 0.137302
v 1.43311 0.000104406 -0.0201436
l 7 8
v 0.462972 -2.03403e-06 0.134637
v 1.45498 -2.03403e-06 0.00843792
l 9 10
v 0.4747 -2.03403e-06 0.133145
v 1.46861 -2.03403e-06 0.022933
l 11 12
v 0.566418 -2.03403e-06 0.0222416
v -0.430839 -2.03403e-06 -0.0517752
l 13 14
v 0.482149 -2.03403e-06 0.132319
v 1.47647 -2.03403e-06 0.0258763
l 15 16
v 0.629649 -2.03403e-06 0.116529
v 1.62397 -2.03403e-06 0.0100864
l 17 18
v 0.777149 -2.03403e-06 0.100739
v 0.777149 -2.03403e-06 -0.899261
l 19 20
v 0.777149 -2.03403e-06 0.0407391
v 0.777149 -2.03403e-06 -0.959261
l 21 22
v 0.777149 -2.03403e-06 0.0405636
v 0.777149 -2.03403e-06 -0.959436
l 23 24
v 0.777149 -2.03403e-06 0.0385666
v -0.219864 -2.03403e-06 -0.0386704
l 25 26
v 0.417149 -2.03403e-06 0.142247
v 1.40347 -0.00068563 -0.0226161
l 27 28
v 0.418525 -2.98771e-06 0.142017
v 1.40423 0.000398742 -0.0264826
l 29 30
v 0.420865 -2.03403e-06 0.141617
v 1.40579 -2.03403e-06 -0.0313677
l 31 32
v 0.427595 -2.03403e-06 0.140435
v 1.41226 -2.03403e-06 -0.0339936
l 33 34
v 0.2009 -2.03403e-06 0.000754528
v -0.7991 -2.03403e-06 0.000992637
l 35 36
v 0.168321 -2.03403e-06 0.151151
v 1.16161 -2.03403e-06 0.26685
l 37 38
v 0.212089 -2.03403e-06 0.000954934
v -0.787751 -2.03403e-06 -0.0169532
l 39 40
v 0.203451 -2.03403e-06 0.155243
v 1.20166 -2.03403e-06 0.215034
l 41 42
v 0.370973 -2.03403e-06 0.149047
v 1.3603 -2.03403e-06 0.00335577
l 43 44
v 0.417149 -2.03403e-06 0.0111628
v -0.58108 -2.03403e-06 -0.0483235
l 45 46
v 0.346772 -2.03403e-06 0.151895
v 1.33992 -2.03403e-06 0.0350205
l 47 48
v 0.073164 -2.03403e-06 0.00641534
v -0.913804 -2.03403e-06 0.167329
l 49 50
v 0.22821 -2.03403e-06 0.156726
v 1.2279 -2.03403e-06 0.181683
l 51 52
v 0.245674 -2.03403e-06 0.157162
v 1.24552 -2.03403e-06 0.139387
l 53 54
v 0.29691 -2.03403e-06 0.00399754
v -0.702447 -2.03403e-06 -0.0318503
l 55 56
v 0.288368 -2.03403e-06 0.156403
v 1.28636 -2.03403e-06 0.0931214
l 57 58
v 0.32043 -2.03403e-06 0.15437
v 1.31605 -2.03403e-06 0.0608257
l 59 60
v 0.101492 -2.03403e-06 0.00309108
v -0.891693 -2.03403e-06 0.11964
l 61 62
v 0.0976404 -2.03403e-06 0.133992
v 1.05423 -2.03403e-06 0.425427
l 63 64
v 0.13008 -2.03403e-06 0.00135833
v -0.868088 -2.03403e-06 0.0618584
l 65 66
v 0.123397 -2.03403e-06 0.141839
v 1.09515 -2.03403e-06 0.37785
l 67 68
v 0.150398 -2.03403e-06 0.000766553
v -0.849178 -2.03403e-06 0.02988
l 69 70
v 0.140163 -2.03403e-06 0.145911
v 1.12205 -2.03403e-06 0.335355
l 71 72
v 0.162507 -2.03403e-06 0.150222
v 1.14998 -2.03403e-06 0.308007
l 73 74
v 0.0309878 -2.03403e-06 0.100492
v 0.855193 -2.03403e-06 0.666784
l 75 76
v 0.042087 -2.03403e-06 0.108118
v 0.893445 -2.03403e-06 0.632704
l 77 78
v 0.0516379 -2.03403e-06 0.01074
v -0.912859 -2.03403e-06 0.274834
l 79 80
v 0.000227891 -2.03403e-06 0.0534305
v 0.0177074 -2.03403e-06 1.05328
l 81 82
v 0.00180629 -2.03403e-06 0.0640409
v 0.316946 -2.03403e-06 1.01309
l 83 84
v 0.0454935 -2.03403e-06 0.110217
v 0.929459 -2.03403e-06 0.57777
l 85 86
v 0.0674663 -2.03403e-06 0.121839
v 0.985851 -2.03403e-06 0.517528
l 87 88
v 0.0834996 -2.03403e-06 0.128747
v 1.02108 -2.03403e-06 0.476508
l 89 90
v 0.0698081 -2.03403e-06 0.00696248
v -0.909258 -2.03403e-06 0.210507
l 91 92
v 0.00074583 -2.03403e-06 0.0478826
v -0.154666 -2.03403e-06 1.03573
l 93 94
v 0.000519049 -2.03403e-06 0.0493241
v -0.0702068 -2.03403e-06 1.04682
l 95 96
v 0.000258434 -2.03403e-06 0.0551776
v 0.0878027 -2.03403e-06 1.05134
l 97 98
v 0.000520137 -2.03403e-06 0.0581555
v 0.18538 -2.03403e-06 1.04092
l 99 100
v 0.00123312 -2.03403e-06 0.0619459
v 0.265125 -2.03403e-06 1.0265
l 101 102
v 0.0452679 -2.03403e-06 0.0124842
v -0.901883 -2.03403e-06 0.333273
l 103 104
v 0.0346785 -2.03403e-06 0.0160707
v -0.882989 -2.03403e-06 0.413419
l 105 106
v 0.00118536 -2.03403e-06 0.045849
v -0.21007 -2.03403e-06 1.02328
l 107 108
v 0.00187962 -2.03403e-06 0.0435096
v -0.282625 -2.03403e-06 1.00218
l 109 110
v 0.00248655 -2.03403e-06 0.0660895
v 0.392112 -2.03403e-06 0.987063
l 111 112
v 0.00443198 -2.03403e-06 0.070688
v 0.485182 -2.03403e-06 0.947546
l 113 114
v 0.00706606 -2.03403e-06 0.0754924
v 0.55834 -2.03403e-06 0.909817
l 115 116
v 0.00953863 -2.03403e-06 0.0792345
v 0.647061 -2.03403e-06 0.849666
l 117 118
v 0.0167304 -2.03403e-06 0.0879256
v 0.744716 -2.03403e-06 0.773518
l 119 120
v 0.0250175 -2.03403e-06 0.0957301
v 0.806802 -2.03403e-06 0.719279
l 121 122
v 0.0158127 -2.03403e-06 0.026022
v -0.75346 -2.03403e-06 0.664942
l 123 124
v 0.0106985 -2.03403e-06 0.0302696
v -0.672071 -2.03403e-06 0.760904
l 125 126
v 0.0074034 -2.03403e-06 0.0337957
v -0.616844 -2.03403e-06 0.815023
l 127 128
v 0.017223 -2.03403e-06 0.0250233
v -0.798873 -2.03403e-06 0.60294
l 129 130
v 0.00668936 -2.03403e-06 0.0346893
v -0.55681 -2.03403e-06 0.860806
l 131 132
v 0.00443725 -2.03403e-06 0.037991
v -0.484709 -2.03403e-06 0.910193
l 133 134
v 0.0271041 -2.03403e-06 0.0193504
v -0.863099 -2.03403e-06 0.474915
l 135 136
v 0.0235692 -2.03403e-06 0.0211594
v -0.83057 -2.03403e-06 0.541204
l 137 138
v 0.00242189 -2.03403e-06 0.0420521
v -0.346281 -2.03403e-06 0.979285
l 139 140
v 0.00367992 -2.03403e-06 0.0393414
v -0.417291 -2.03403e-06 0.946415
l 141 142
v 0.872745 -1.19866 0.223606
v -0.0436794 -1.58862 0.133604
l 143 144
v 0.923506 -1.20413 0.222345
v 1.92159 -1.14386 0.236283
l 145 146
v 0.945203 -1.20282 0.222648
v 0.945203 -0.228375 0.447274
l 147 148
v 0.945203 -1.19892 0.223547
v -0.0528822 -1.13866 0.237486
l 149 150
v 0.910991 -1.20474 0.222203
v 1.90974 -1.15606 0.233535
l 151 152
v 0.923507 -1.19761 0.22385
v -0.075224 -1.14855 0.235217
l 153 154
v 0.899497 -1.20516 0.222107
v 1.8988 -1.16865 0.230454
l 155 156
v 0.911294 -1.19701 0.223989
v -0.0880073 -1.16059 0.232375
l 157 158
v 0.889145 -1.20524 0.222088
v 1.88911 -1.19751 0.223923
l 159 160
v 0.899497 -1.19658 0.224088
v -0.100503 -1.19658 0.22401
l 161 162
v 0.886235 -1.20513 0.222114
v 1.88548 -1.24291 0.213185
l 163 164
v 0.886765 -1.19658 0.224087
v -0.109374 -1.28215 0.204448
l 165 166
v 0.879664 -1.20455 0.222247
v 1.87559 -1.29245 0.202088
l 167 168
v 0.879664 -1.19719 0.223947
v -0.109889 -1.33762 0.191324
l 169 170
v 0.875679 -1.2039 0.222397
v 1.86195 -1.36479 0.185274
l 171 172
v 0.87748 -1.1975 0.223875
v -0.105417 -1.3768 0.181848
l 173 174
v 0.874113 -1.20352 0.222484
v 1.84451 -1.43894 0.168577
l 175 176
v 0.872967 -1.20316 0.222569
v 1.82462 -1.50211 0.151976
l 177 178
v 0.875726 -1.19782 0.2238
v -0.0929144 -1.44001 0.168304
l 179 180
v 0.873806 -1.1983 0.22369
v -0.0705166 -1.51872 0.148931
l 181 182
v 0.871653 -1.20257 0.222705
v 1.77671 -1.61667 0.125817
l 183 184
v 0.872746 -1.20307 0.222588
v 1.79598 -1.57903 0.143225
l 185 186
v 0.945203 -1.19892 0.223547
v 0.450298 -1.00341 -0.623119
l 187 188
v 0.876857 -1.17582 0.105723
v 1.37176 -1.37133 0.952392
l 189 190
v 0.238203 -0.324843 0.0671222
v 0.238203 -0.189654 -0.923698
l 191 192
v 0.238203 -0.32452 0.0647549
v 0.238203 -0.278604 -0.93419
l 193 194
v 0.238203 -0.352502 0.0640491
v 0.238203 -0.343318 1.06401
l 195 196
v 0.238203 -0.32451 0.0645377
v 0.238203 -0.289603 -0.934853
l 197 198
v 0.238203 -0.324282 0.0580095
v 0.238203 -1.06777 -0.610735
l 199 200
v 0.238203 -0.331888 0.0517098
v 0.238203 -1.24825 -0.348634
l 201 202
v 0.238203 -0.325565 0.0693999
v 0.238203 -0.0233886 -0.883852
l 203 204
v 0.238203 -0.3525 0.0642665
v 0.238203 -0.251641 1.05917
l 205 206
v 0.238203 -0.352259 0.0666436
v 0.238203 -0.0839496 1.02998
l 207 208
v 0.238203 -0.329852 0.0750571
v 0.238203 0.400896 -0.60759
l 209 210
v 0.238203 -0.349212 0.0550336
v 0.238203 -0.993268 0.820012
l 211 212
v 0.238203 -0.352502 0.0589413
v 0.238203 -0.352502 1.05894
l 213 214
v 0.238203 -0.348456 0.0542046
v 0.238203 -1.02228 0.793097
l 215 216
v 0.238203 -0.329139 0.0536408
v 0.238203 -1.09853 -0.585133
l 217 218
v 0.238203 -0.330002 0.0529243
v 0.238203 -1.17076 -0.488491
l 219 220
v 0.238203 -0.351618 0.0689451
v 0.238203 0.0769275 0.972465
l 221 222
v 0.238203 -0.350594 0.071104
v 0.238203 0.224992 0.888845
l 223 224
v 0.238203 -0.326663 0.0715218
v 0.238203 0.132907 -0.81662
l 225 226
v 0.238203 -0.328106 0.073426
v 0.238203 0.275863 -0.723582
l 227 228
v 0.238203 -0.338746 0.078047
v 0.238203 0.658945 0.0101241
l 229 230
v 0.238203 -0.341123 0.0778016
v 0.238203 0.65359 0.180495
l 231 232
v 0.238203 -0.336362 0.0778847
v 0.238203 0.635235 -0.158755
l 233 234
v 0.238203 -0.334041 0.0773194
v 0.238203 0.583169 -0.321086
l 235 236
v 0.238203 -0.33185 0.0763677
v 0.238203 0.504307 -0.472122
l 237 238
v 0.238203 -0.336115 0.050254
v 0.238203 -1.33197 -0.0407263
l 239 240
v 0.238203 -0.338349 0.0500499
v 0.238203 -1.33595 0.119307
l 241 242
v 0.238203 -0.347531 0.0747485
v 0.238203 0.468976 0.652084
l 243 244
v 0.238203 -0.349219 0.0730575
v 0.238203 0.357261 0.780791
l 245 246
v 0.238203 -0.34558 0.076128
v 0.238203 0.557207 0.506217
l 247 248
v 0.238203 -0.343423 0.0771556
v 0.238203 0.619323 0.347563
l 249 250
v 0.238203 -0.340586 0.0502052
v 0.238203 -1.31434 0.277815
l 251 252
v 0.238203 -0.34277 0.0507157
v 0.238203 -1.26772 0.430815
l 253 254
v 0.238203 -0.333943 0.050812
v 0.238203 -1.30249 -0.198015
l 255 256
v 0.238203 -0.344845 0.0515684
v 0.238203 -1.1971 0.574692
l 257 258
v 0.238203 -0.346756 0.0527414
v 0.238203 -1.10467 0.705092
l 259 260
v 0.86132 -1.16001 0.0886626
v 1.34524 -1.95415 0.456321
l 261 262
v 0.87292 -1.17353 0.0999714
v 1.43364 -1.57483 0.82423
l 263 264
v 0.86844 -1.16955 0.0948804
v 1.44037 -1.74733 0.677179
l 265 266
v 0.87361 -1.17025 0.102109
v 0.263939 -0.789176 -0.592934
l 267 268
v 0.873146 -1.16996 0.10158
v 0.248599 -0.747917 -0.555551
l 269 270
v 0.867259 -1.16537 0.0961405
v 0.233699 -0.55311 -0.376871
l 271 272
v 0.875362 -1.17124 0.104331
v 0.29094 -0.841022 -0.636889
l 273 274
v 0.870261 -1.16792 0.0986652
v 0.228208 -0.645609 -0.462547
l 275 276
v 0.876857 -1.17192 0.106623
v 0.346656 -0.930769 -0.706232
l 277 278
v 0.871459 -1.16882 0.099805
v 0.235126 -0.690755 -0.505616
l 279 280
v 0.875228 -1.17504 0.103135
v 1.3914 -1.42219 0.923185
l 281 282
v 0.873395 -1.17387 0.100585
v 1.42034 -1.523 0.861483
l 283 284
v 0.871212 -1.17216 0.0978957
v 1.43732 -1.62623 0.785891
l 285 286
v 0.868539 -1.16965 0.0949812
v 1.43921 -1.70553 0.717205
l 287 288
v 0.860466 -1.15842 0.0880621
v 1.30945 -1.99433 0.403762
l 289 290
v 0.857218 -1.14937 0.0863402
v 1.09426 -2.11787 0.162604
l 291 292
v 0.857803 -1.15176 0.0865284
v 1.16836 -2.09036 0.236814
l 293 294
v 0.85865 -1.15432 0.0869383
v 1.23683 -2.05231 0.311861
l 295 296
v 0.859804 -1.15706 0.0876246
v 1.28027 -2.02078 0.365485
l 297 298
v 0.857765 -1.15135 0.0904922
v 0.608566 -0.185509 0.0194247
l 299 300
v 0.8586 -1.15361 0.0908201
v 0.51519 -0.224156 -0.0440348
l 301 302
v 0.859768 -1.156 0.0913656
v 0.429661 -0.275856 -0.109519
l 303 304
v 0.860447 -1.15717 0.0917138
v 0.374355 -0.319567 -0.157556
l 305 306
v 0.861327 -1.15854 0.092193
v 0.342853 -0.351401 -0.190138
l 307 308
v 0.865862 -1.16402 0.0950975
v 0.255753 -0.503295 -0.342178
l 309 310
v 0.865742 -1.16389 0.0950115
v 0.246661 -0.506174 -0.334114
l 311 312
v 0.864509 -1.16258 0.0941568
v 0.263849 -0.465443 -0.29726
l 313 314
v 0.86332 -1.1612 0.093382
v 0.277245 -0.438142 -0.272273
l 315 316
v 0.862939 -1.16073 0.0931443
v 0.30339 -0.400554 -0.237064
l 317 318
v 0.863248 -1.16312 0.0901425
v 1.38307 -1.89988 0.522538
l 319 320
v 0.864398 -1.16475 0.0910991
v 1.40065 -1.86536 0.561822
l 321 322
v 0.865592 -1.16631 0.0921472
v 1.41794 -1.83332 0.592158
l 323 324
v 0.865708 -1.16645 0.0922522
v 1.4236 -1.79947 0.628948
l 325 326
v 0.86288 -1.16257 0.0898478
v 1.37086 -1.92183 0.496648
l 327 328
v 0.868663 -1.16662 0.0972684
v 0.228228 -0.596414 -0.417231
l 329 330
v 0.695781 -0.352502 0.0585118
v 0.702821 -0.352502 1.05849
l 331 332
v 0.690135 -0.324038 0.0593574
v 0.667663 -0.236651 -0.936564
l 333 334
v 0.690179 -0.324204 0.0612528
v 0.667066 -0.236981 -0.934668
l 335 336
v 0.690279 -0.324555 0.0652693
v 0.66548 -0.237521 -0.930627
l 337 338
v 0.695699 -0.351761 0.0685415
v 0.63488 -0.0212295 1.01037
l 339 340
v 0.695286 -0.349564 0.0726294
v 0.574323 0.268529 0.849372
l 341 342
v 0.694993 -0.348055 0.0742831
v 0.54952 0.387149 0.736335
l 343 344
v 0.694648 -0.346304 0.0756733
v 0.529744 0.484334 0.607507
l 345 346
v 0.690389 -0.325011 0.0677906
v 0.632891 -0.0659857 -0.896367
l 347 348
v 0.690377 -0.324957 0.0675897
v 0.648803 -0.1544 -0.916881
l 349 350
v 0.690798 -0.326999 0.0720294
v 0.580957 0.226979 -0.753224
l 351 352
v 0.69075 -0.326757 0.0716689
v 0.593625 0.156329 -0.7985
l 353 354
v 0.690563 -0.325827 0.0699937
v 0.605444 0.0873643 -0.836664
l 355 356
v 0.690535 -0.325691 0.0696953
v 0.618518 0.00967498 -0.869636
l 357 358
v 0.69109 -0.328495 0.0738404
v 0.558894 0.352722 -0.646207
l 359 360
v 0.69103 -0.328186 0.0735138
v 0.569844 0.291738 -0.701733
l 361 362
v 0.691826 -0.332283 0.0765921
v 0.519826 0.539482 -0.382148
l 363 364
v 0.691707 -0.33168 0.0762748
v 0.529768 0.499872 -0.455042
l 365 366
v 0.691433 -0.330273 0.0753758
v 0.539096 0.456116 -0.523278
l 367 368
v 0.69134 -0.329793 0.0750104
v 0.549697 0.405504 -0.587768
l 369 370
v 0.692266 -0.334467 0.0774552
v 0.50169 0.597216 -0.231813
l 371 372
v 0.692113 -0.333719 0.0772069
v 0.511409 0.570438 -0.309894
l 373 374
v 0.692531 -0.335758 0.0777776
v 0.497215 0.615761 -0.159844
l 375 376
v 0.692736 -0.336765 0.077941
v 0.495689 0.630972 -0.0790882
l 377 378
v 0.692967 -0.337909 0.0780365
v 0.495728 0.639048 -0.0035187
l 379 380
v 0.69321 -0.339112 0.0780358
v 0.495208 0.641089 0.0786064
l 381 382
v 0.693417 -0.34014 0.0779529
v 0.496625 0.637133 0.156765
l 383 384
v 0.693678 -0.341442 0.0777368
v 0.49967 0.626318 0.238362
l 385 386
v 0.693847 -0.342284 0.0775284
v 0.502633 0.610515 0.313351
l 387 388
v 0.694129 -0.343689 0.0770526
v 0.507374 0.586809 0.392165
l 389 390
v 0.69422 -0.344147 0.0768604
v 0.513978 0.562847 0.457484
l 391 392
v 0.694546 -0.34579 0.0760024
v 0.521337 0.527223 0.531904
l 393 394
v 0.69492 -0.347686 0.0746154
v 0.540523 0.43685 0.675169
l 395 396
v 0.695239 -0.349324 0.072931
v 0.563734 0.329072 0.795762
l 397 398
v 0.695494 -0.350656 0.0709965
v 0.590188 0.202157 0.897621
l 399 400
v 0.695527 -0.350835 0.0706738
v 0.606399 0.132288 0.941678
l 401 402
v 0.695678 -0.351647 0.0688664
v 0.619701 0.0569726 0.978403
l 403 404
v 0.695789 -0.352267 0.0666006
v 0.650962 -0.100256 1.03329
l 405 406
v 0.695798 -0.352321 0.0662923
v 0.667054 -0.179858 1.05089
l 407 408
v 0.69582 -0.352502 0.0640491
v 0.686047 -0.272083 1.06076
l 409 410
v 0.815965 -0.945644 0.0822041
v 0.61753 0.033689 0.0430856
l 411 412
v 0.694962 -0.348601 0.0543529
v 0.893397 -1.32793 0.0934725
l 413 414
v 0.733461 -0.538464 0.0659398
v 0.535026 0.440869 0.0268217
l 415 416
v 0.815965 -0.945784 0.0782076
v 1.01441 -1.92512 0.117329
l 417 418
v 0.857218 -1.14923 0.0903362
v 0.658774 -0.169899 0.0512175
l 419 420
v 0.774713 -0.742194 0.0700751
v 0.973148 -1.72153 0.109195
l 421 422
v 0.774713 -0.742054 0.0740719
v 0.576278 0.237279 0.0349539
l 423 424
v 0.733461 -0.538604 0.0619426
v 0.931896 -1.51794 0.101063
l 425 426
v 0.691064 -0.32921 0.0535768
v 0.840271 -1.12059 -0.539257
l 427 428
v 0.694808 -0.347863 0.053639
v 0.843146 -1.05867 0.741209
l 429 430
v 0.69252 -0.336681 0.0501681
v 0.891177 -1.31048 -0.0605324
l 431 432
v 0.692185 -0.335009 0.0504919
v 0.885212 -1.29831 -0.136059
l 433 434
v 0.69262 -0.337171 0.0501124
v 0.890559 -1.31701 0.0231155
l 435 436
v 0.693002 -0.339062 0.0500603
v 0.891393 -1.31753 0.107078
l 437 438
v 0.693105 -0.33957 0.0500899
v 0.890098 -1.30991 0.190181
l 439 440
v 0.693482 -0.341427 0.050358
v 0.890592 -1.29684 0.270197
l 441 442
v 0.693567 -0.341839 0.0504528
v 0.884686 -1.27641 0.350536
l 443 444
v 0.693949 -0.343707 0.0510526
v 0.87978 -1.24918 0.432614
l 445 446
v 0.694043 -0.344165 0.0512456
v 0.873326 -1.21496 0.509046
l 447 448
v 0.694387 -0.345836 0.0521241
v 0.866074 -1.17901 0.577808
l 449 450
v 0.694447 -0.346127 0.0523077
v 0.857827 -1.13204 0.648664
l 451 452
v 0.694785 -0.347753 0.0535415
v 0.849426 -1.0871 0.708862
l 453 454
v 0.691413 -0.331061 0.0521902
v 0.856203 -1.18898 -0.434447
l 455 456
v 0.691621 -0.332144 0.0515759
v 0.865171 -1.22445 -0.365166
l 457 458
v 0.691791 -0.333018 0.0511677
v 0.87377 -1.25613 -0.287566
l 459 460
v 0.692054 -0.334352 0.0506782
v 0.880457 -1.27919 -0.217236
l 461 462
v 0.775087 -0.048089 0.0482266
v 0.557086 -0.933454 -0.362387
l 463 464
v 0.774743 -0.049486 0.0475787
v 0.507102 -0.953115 -0.286822
l 465 466
v 0.773159 -0.054834 0.0455996
v 0.463772 -0.966455 -0.225005
l 467 468
v 0.772969 -0.0553939 0.0454334
v 0.438779 -0.968202 -0.189298
l 469 470
v 0.771934 -0.058221 0.0447064
v 0.392998 -0.967862 -0.125471
l 471 472
v 0.770341 -0.062045 0.043991
v 0.3632 -0.96609 -0.0861609
l 473 474
v 0.766387 -0.06988 0.0433481
v 0.238587 -0.91907 0.0607866
l 475 476
v 0.776509 -0.040248 0.0531894
v 0.678099 -0.812976 -0.573872
l 477 478
v 0.776468 -0.04057 0.0529281
v 0.648605 -0.852104 -0.517216
l 479 480
v 0.775877 -0.0443209 0.0502929
v 0.595077 -0.906691 -0.422602
l 481 482
v 0.77711 -0.032578 0.0629566
v 0.757234 -0.512353 -0.81421
l 483 484
v 0.777035 -0.034388 0.0596474
v 0.735323 -0.643823 -0.732091
l 485 486
v 0.776861 -0.03693 0.056345
v 0.700209 -0.759416 -0.630779
l 487 488
v 0.777115 -0.032408 0.0633381
v 0.765128 -0.439406 -0.850012
l 489 490
v 0.777138 -0.0313619 0.0662014
v 0.769591 -0.374515 -0.873048
l 491 492
v 0.777142 -0.031053 0.0673091
v 0.773669 -0.299669 -0.895932
l 493 494
v 0.77715 -0.030488 0.0699034
v 0.774142 -0.243284 -0.907189
l 495 496
v 0.777149 -0.029397 0.0767348
v 0.777287 -0.187102 -0.910751
l 497 498
v 0.777149 -0.020893 0.0922675
v 0.777149 -0.708035 -0.634256
l 499 500
v 0.777149 -0.022657 0.0904024
v 0.777149 -0.672341 -0.669802
l 501 502
v 0.777149 -0.0229909 0.0900117
v 0.777149 -0.639043 -0.697694
l 503 504
v 0.777149 -0.024256 0.0883941
v 0.777149 -0.572558 -0.747886
l 505 506
v 0.777149 -0.025866 0.0859385
v 0.777149 -0.500012 -0.794508
l 507 508
v 0.777149 -0.026908 0.0840036
v 0.777149 -0.427234 -0.832369
l 509 510
v 0.777149 -0.028015 0.0814696
v 0.777149 -0.348797 -0.865684
l 511 512
v 0.777149 -0.028775 0.0792256
v 0.777149 -0.271055 -0.890981
l 513 514
v 0.777149 -2.03403e-06 0.100739
v 0.777149 -0.99827 0.0419164
l 515 516
v 0.777149 -0.00353206 0.100531
v 0.777149 -0.993204 -0.0428186
l 517 518
v 0.777149 -0.00511301 0.100302
v 0.777149 -0.979154 -0.12607
l 519 520
v 0.777149 -0.00842405 0.0995325
v 0.777149 -0.959565 -0.209223
l 521 522
v 0.777149 -0.010074 0.0989969
v 0.777149 -0.932677 -0.286754
l 523 524
v 0.777149 -0.013039 0.0977572
v 0.777149 -0.899538 -0.364973
l 525 526
v 0.777149 -0.014741 0.0968688
v 0.777149 -0.859893 -0.437656
l 527 528
v 0.777149 -0.017298 0.0952516
v 0.777149 -0.806174 -0.519301
l 529 530
v 0.777149 -0.019515 0.0935245
v 0.777149 -0.758313 -0.580402
l 531 532
v 0.759966 -0.080025 0.0435991
v 0.154337 -0.874677 0.0853323
l 533 534
v 0.75005 -0.0930359 0.0442824
v 0.112905 -0.862067 0.095649
l 535 536
v 0.727532 -0.120215 0.0460978
v 0.13475 -0.92349 0.104046
l 537 538
v 0.716166 -0.135617 0.0472089
v 0.197092 -0.988217 0.107498
l 539 540
v 0.705552 -0.153051 0.0484417
v 0.288107 -1.05973 0.109072
l 541 542
v 0.696306 -0.173133 0.0497846
v 0.367767 -1.11576 0.109019
l 543 544
v 0.692393 -0.18436 0.0504901
v 0.427311 -1.14686 0.108192
l 545 546
v 0.689055 -0.19648 0.0512167
v 0.488288 -1.17452 0.107105
l 547 548
v 0.686368 -0.20957 0.0519647
v 0.549393 -1.19868 0.105782
l 549 550
v 0.68441 -0.223709 0.052734
v 0.609056 -1.21953 0.104336
l 551 552
v 0.683255 -0.238972 0.0535249
v 0.666638 -1.23762 0.102805
l 553 554
v 0.682981 -0.255439 0.0543375
v 0.721344 -1.2536 0.101273
l 555 556
v 0.683663 -0.273184 0.0551719
v 0.772991 -1.26819 0.0997838
l 557 558
v 0.685378 -0.292287 0.0560284
v 0.821428 -1.28208 0.0983664
l 559 560
v 0.688201 -0.312825 0.0569069
v 0.856744 -1.29768 0.0976018
l 561 562
v 0.761163 -0.078285 0.0435207
v 0.19479 -0.901599 0.0806165
l 563 564
v 0.750078 -0.093074 0.0402374
v 1.3551 0.702098 -0.000413013
l 565 566
v 0.727584 -0.120268 0.0420164
v 1.36415 0.649307 -0.00832825
l 567 568
v 0.716228 -0.135679 0.0431122
v 1.30848 0.668048 -0.0140369
l 569 570
v 0.705621 -0.153122 0.0443338
v 1.22427 0.699779 -0.0153982
l 571 572
v 0.696379 -0.173214 0.0456723
v 1.11351 0.733623 -0.0147398
l 573 574
v 0.692462 -0.184446 0.0463827
v 1.02116 0.758105 -0.0132315
l 575 576
v 0.689118 -0.196572 0.047119
v 0.954511 0.765796 -0.0113167
l 577 578
v 0.686423 -0.209669 0.0478801
v 0.887649 0.768226 -0.00894786
l 579 580
v 0.684454 -0.223814 0.0486649
v 0.822117 0.765144 -0.00620519
l 581 582
v 0.683289 -0.239084 0.0494724
v 0.759258 0.756635 -0.00318249
l 583 584
v 0.683004 -0.255557 0.0503013
v 0.700279 0.74303 5.36956e-05
l 585 586
v 0.683677 -0.273309 0.0511506
v 0.645836 0.724833 0.00339681
l 587 588
v 0.685384 -0.292418 0.0520193
v 0.596502 0.702597 0.00678569
l 589 590
v 0.688202 -0.31296 0.0529062
v 0.552414 0.676856 0.010171
l 591 592
v 0.691064 -0.32921 0.0535768
v 0.517755 0.65482 0.0129681
l 593 594
v 0.777149 -0.018025 0.0385666
v 0.777149 0.981975 0.0385666
l 595 596
v 0.776941 -0.035912 0.0385772
v 0.78857 0.96402 0.0379847
l 597 598
v 0.775893 -0.04425 0.0386322
v 0.900602 0.947922 0.0320875
l 599 600
v 0.774031 -0.052092 0.038733
v 1.00503 0.920782 0.0262275
l 601 602
v 0.771432 -0.059517 0.0388784
v 1.10175 0.88417 0.0203989
l 603 604
v 0.768173 -0.066601 0.0390675
v 1.18599 0.841605 0.014824
l 605 606
v 0.764434 -0.073253 0.0392927
v 1.25421 0.798097 0.00979342
l 607 608
v 0.761211 -0.078265 0.0394937
v 1.30178 0.762359 0.00578185
l 609 610
v 0.759983 -0.080056 0.0395719
v 1.3251 0.744169 0.00358339
l 611 612
v 0.261186 -0.35198 0.0583221
v 0.45222 -0.988127 0.805866
l 613 614
v 0.261198 -0.35202 0.0583691
v 0.445532 -0.985202 0.810101
l 615 616
v 0.261212 -0.352068 0.0584261
v 0.53136 -0.972361 0.794806
l 617 618
v 0.262554 -0.3525 0.0616885
v 0.88125 -0.353165 0.847319
l 619 620
v 0.261401 -0.352502 0.0589413
v 0.35494 -0.352502 1.05456
l 621 622
v 0.261441 -0.352502 0.059367
v 0.504545 -0.350663 1.02937
l 623 624
v 0.261571 -0.352501 0.0598857
v 0.649769 -0.35105 0.981461
l 625 626
v 0.261842 -0.3525 0.0605291
v 0.78514 -0.3525 0.912679
l 627 628
v 0.656972 -0.352502 0.0609804
v 1.65496 -0.352502 -0.00250019
l 629 630
v 0.623073 -0.352502 0.0640491
v 1.619 -0.352502 -0.0261071
l 631 632
v 0.69009 -0.323863 0.057363
v -0.308633 -0.328291 0.107683
l 633 634
v 0.68152 -0.323901 0.0577948
v -0.315947 -0.330116 0.128649
l 635 636
v 0.64236 -0.324145 0.0605765
v -0.352801 -0.332698 0.158464
l 637 638
v 0.579363 -0.324814 0.0669949
v -0.413421 -0.353227 0.183493
l 639 640
v 0.594651 -0.324555 0.0652693
v -0.398898 -0.341386 0.177414
l 641 642
v 0.554936 -0.325804 0.0699461
v -0.435291 -0.387655 0.194945
l 643 644
v 0.573038 -0.324995 0.0677371
v -0.418623 -0.369313 0.18875
l 645 646
v 0.557361 -0.350428 0.0713825
v 1.54798 -0.419911 -0.0463105
l 647 648
v 0.560854 -0.350673 0.0709675
v 1.55263 -0.404324 -0.0452372
l 649 650
v 0.579155 -0.351663 0.0688232
v 1.57193 -0.389515 -0.0450278
l 651 652
v 0.585266 -0.351896 0.0681224
v 1.57871 -0.37866 -0.04303
l 653 654
v 0.599594 -0.352282 0.0665193
v 1.59401 -0.362355 -0.0385132
l 655 656
v 0.621115 -0.3525 0.0642462
v 1.61609 -0.353515 -0.0359127
l 657 658
v 0.253632 -0.324748 0.0666614
v -0.514051 -0.253378 -0.570182
l 659 660
v 0.258081 -0.325582 0.0694432
v -0.584017 -0.161343 -0.444265
l 661 662
v 0.254333 -0.324851 0.0671568
v -0.556496 -0.205714 -0.505872
l 663 664
v 0.266691 -0.328096 0.0734153
v -0.616807 -0.026526 -0.285034
l 665 666
v 0.264942 -0.327499 0.0727057
v -0.616356 -0.0536356 -0.312409
l 667 668
v 0.2623 -0.326678 0.0715512
v -0.609038 -0.100324 -0.363804
l 669 670
v 0.266956 -0.352253 0.0666693
v 1.00838 -0.198709 0.719905
l 671 672
v 0.268308 -0.351973 0.0678605
v 1.02528 -0.160161 0.692524
l 673 674
v 0.264413 -0.352502 0.0640491
v 0.947758 -0.303495 0.792498
l 675 676
v 0.266128 -0.352379 0.0658773
v 0.98444 -0.243067 0.752957
l 677 678
v 0.246625 -0.324291 0.0582549
v 0.169487 -0.287749 -0.938096
l 679 680
v 0.24716 -0.324344 0.0597644
v -0.20135 -0.293011 -0.833464
l 681 682
v 0.251072 -0.32451 0.0645377
v -0.442333 -0.300245 -0.655602
l 683 684
v 0.2497 -0.324462 0.0631128
v -0.386116 -0.29673 -0.70823
l 685 686
v 0.248164 -0.324395 0.0612494
v -0.311703 -0.29596 -0.766845
l 687 688
v 0.246945 -0.324329 0.0593362
v -0.129104 -0.293919 -0.866765
l 689 690
v 0.246809 -0.324318 0.0590013
v -0.0649779 -0.291556 -0.890586
l 691 692
v 0.246733 -0.32431 0.0587698
v 0.0138062 -0.290604 -0.91314
l 693 694
v 0.246657 -0.324299 0.0584527
v 0.087115 -0.284321 -0.927929
l 695 696
v 0.246606 -0.324282 0.0580095
v 0.652205 -1.00436 -0.552711
l 697 698
v 0.250156 -0.327467 0.0551445
v 1.11027 -0.710446 -0.281797
l 699 700
v 0.24967 -0.327216 0.0553698
v 1.0712 -0.75151 -0.325491
l 701 702
v 0.250713 -0.327715 0.0549263
v 1.14702 -0.648701 -0.251011
l 703 704
v 0.251129 -0.327864 0.0547843
v 1.16196 -0.623526 -0.233266
l 705 706
v 0.248629 -0.326537 0.0559805
v 0.967158 -0.841882 -0.41107
l 707 708
v 0.249011 -0.326811 0.0557322
v 0.993659 -0.824978 -0.388485
l 709 710
v 0.249156 -0.326908 0.0556457
v 1.02832 -0.793808 -0.362582
l 711 712
v 0.246906 -0.324785 0.0575578
v 0.720204 -0.979553 -0.531736
l 713 714
v 0.247099 -0.325052 0.0573175
v 0.766566 -0.958688 -0.515971
l 715 716
v 0.247322 -0.325324 0.0570714
v 0.808191 -0.940484 -0.497007
l 717 718
v 0.24757 -0.325596 0.0568264
v 0.848414 -0.920848 -0.476711
l 719 720
v 0.247895 -0.325918 0.0565378
v 0.881987 -0.901001 -0.460382
l 721 722
v 0.248099 -0.326103 0.0563715
v 0.920041 -0.876344 -0.439339
l 723 724
