v 0.0976353 -0.0117238 -0.000289647
v 0.104481 -0.0117169 4.63959e-06
v 0.105777 -0.0111132 0.00317623
v 0.103657 -0.0121095 0.00336537
v 0.0973022 -0.0118723 0.00409239
v 0.0971192 -0.00897197 0.00399566
v 0.0992854 -0.00800388 0.00369921
v 0.0976698 -0.00876855 0.000101546
v 0.101096 -0.00875461 0.00024422
v 0.10451 -0.00878059 0.000270575
v 0.104496 -0.010243 0.000163426
v 0.105713 -0.0101731 0.00315057
v 0.104058 -0.00895495 0.00321451
v 0.10129 -0.00816094 0.00347078
l 1 2
l 2 3
l 3 4
l 4 5
l 5 1
l 1 5
l 5 6
l 6 7
l 7 8
l 8 1
l 1 8
l 8 9
l 9 10
l 10 11
l 11 2
l 2 1
l 2 11
l 11 12
l 12 3
l 3 2
l 10 13
l 13 12
l 12 11
l 11 10
l 8 7
l 7 14
l 14 9
l 9 8
l 10 9
l 9 14
l 14 13
l 13 10
l 6 5
l 5 4
l 4 3
l 3 12
l 12 13
l 13 14
l 14 7
l 7 6
